Logistic Regression
…
4.3 Predict the outcome for test data

test$y_prob <- predict(model_logistic, newdata = test, type = "response")

4.4 Make submission to Kaggle

submission_logistic <- test |>
  select(Id, y_prob)

submission_logistic <- rename(submission_logistic, Probability = y_prob)

submission_logistic

# A tibble: 101,503 × 2
      Id Probability
   <dbl>       <dbl>
 1     1      0.0827
 2     2      0.0508
 3     3      0.0484
 4     4      0.0946
 5     5      0.132 
 6     6      0.0446
 7     7      0.0664
 8     8      0.0262
 9     9      0.0381
10    10      0.151 
# ℹ 101,493 more rows
…
